{
  "prepare_queue": {
    "installed": [],
    "uninstalled": []
  },
  "config_munge": {
    "files": {}
  },
  "installed_plugins": {
    "cordova-plugin-app-version": {
      "PACKAGE_NAME": "com.skystargps1.ionic"
    },
    "cordova-plugin-camera": {
      "PACKAGE_NAME": "com.skystargps1.ionic"
    },
    "cordova-plugin-device": {
      "PACKAGE_NAME": "com.skystargps1.ionic"
    },
    "cordova-plugin-file-transfer": {
      "PACKAGE_NAME": "com.skystargps1.ionic"
    },
    "cordova-plugin-filepath": {
      "PACKAGE_NAME": "com.skystargps1.ionic"
    },
    "cordova-plugin-geolocation": {
      "PACKAGE_NAME": "com.skystargps1.ionic"
    },
    "cordova-plugin-googlemaps": {
      "API_KEY_FOR_ANDROID": "AIzaSyCmSXnoBBGekErvqBvu5N7dbeqdH1pHp7c",
      "PLAY_SERVICES_VERSION": "15.0.1",
      "ANDROID_SUPPORT_V4_VERSION": "27.+",
      "PACKAGE_NAME": "com.skystargps1.ionic"
    },
    "cordova-plugin-inappbrowser": {
      "PACKAGE_NAME": "com.skystargps1.ionic"
    },
    "cordova-plugin-ionic": {
      "APP_ID": "501b929f",
      "CHANNEL_NAME": "Master",
      "UPDATE_API": "https://api.ionicjs.com",
      "UPDATE_METHOD": "auto",
      "MAX_STORE": "2",
      "MIN_BACKGROUND_DURATION": "30",
      "ANDROID_SUPPORT_ANNOTATIONS_VERSION": "27.+",
      "PACKAGE_NAME": "com.skystargps1.ionic"
    },
    "cordova-plugin-ionic-keyboard": {
      "PACKAGE_NAME": "com.skystargps1.ionic"
    },
    "cordova-plugin-ionic-webview": {
      "ANDROID_SUPPORT_ANNOTATIONS_VERSION": "27.+",
      "PACKAGE_NAME": "com.skystargps1.ionic"
    },
    "cordova-plugin-nativegeocoder": {
      "PACKAGE_NAME": "com.skystargps1.ionic"
    },
    "cordova-plugin-network-information": {
      "PACKAGE_NAME": "com.skystargps1.ionic"
    },
    "cordova-plugin-networkinterface": {
      "PACKAGE_NAME": "com.skystargps1.ionic"
    },
    "cordova-plugin-splashscreen": {
      "PACKAGE_NAME": "com.skystargps1.ionic"
    },
    "cordova-plugin-statusbar": {
      "PACKAGE_NAME": "com.skystargps1.ionic"
    },
    "cordova-plugin-tts": {
      "PACKAGE_NAME": "com.skystargps1.ionic"
    },
    "cordova-plugin-whitelist": {
      "PACKAGE_NAME": "com.skystargps1.ionic"
    },
    "cordova-plugin-x-socialsharing": {
      "PACKAGE_NAME": "com.skystargps1.ionic"
    },
    "cordova-sms-plugin": {
      "PACKAGE_NAME": "com.skystargps1.ionic"
    },
    "cordova-support-google-services": {
      "PACKAGE_NAME": "com.skystargps1.ionic"
    },
    "phonegap-plugin-push": {
      "ANDROID_SUPPORT_V13_VERSION": "27.+",
      "FCM_VERSION": "11.6.2",
      "PACKAGE_NAME": "com.skystargps1.ionic"
    }
  },
  "dependent_plugins": {
    "cordova-plugin-file": {
      "PACKAGE_NAME": "com.skystargps1.ionic"
    },
    "es6-promise-plugin": {
      "PACKAGE_NAME": "com.skystargps1.ionic"
    },
    "phonegap-plugin-multidex": {
      "PACKAGE_NAME": "com.skystargps1.ionic"
    }
  }
}